[
    {
        "name": "v0.2.0 (stable)",
        "version": "0.2.0",
        "url": "https://eclipse-aidge.readthedocs.io/en/latest/"
    },
    {
        "name": "v0.2.1 (dev)",
        "version": "0.2.1",
        "url": "https://eclipse-aidge.readthedocs.io/en/dev/"
    }
]
